{
"type": "FeatureCollection",
"name": "lv6_4326_s_500m",
"crs": { "type": "name", "properties": { "name": "urn:ogc:def:crs:OGC:1.3:CRS84" } },
"features": [
{ "type": "Feature", "properties": { "NAME": "Биробиджанский район", "NAME_EN": "Birobidzhansky District", "NAME_RU": "Биробиджанский район", "ADMIN_LVL": "6", "OSM_TYPE": "relation", "OSM_ID": 1701712, "ADMIN_L1D": null, "ADMIN_L1": null, "ADMIN_L2D": 60189, "ADMIN_L2": "Россия", "ADMIN_L3D": 1221185, "ADMIN_L3": "Дальневосточный федеральный округ", "ADMIN_L4D": 147167, "ADMIN_L4": "Еврейская автономная область", "ADMIN_L5D": null, "ADMIN_L5": null, "ADMIN_L6D": null, "ADMIN_L6": null, "ADMIN_L7D": null, "ADMIN_L7": null, "ADMIN_L8D": null, "ADMIN_L8": null, "ADMIN_L9D": null, "ADMIN_L9": null, "ADMIN_L10D": null, "ADMIN_L10": null, "oktmo": "99605000" }, "geometry": { "type": "Polygon", "coordinates": [ [ [ 133.065261099999958, 48.1072192 ], [ 133.058912399999969, 48.1350795 ], [ 133.047403799999984, 48.129962399999989 ], [ 133.04786, 48.125033 ], [ 133.0380056, 48.1242161 ], [ 133.035165399999983, 48.1310812 ], [ 133.021516100000014, 48.1367983 ], [ 133.0065912, 48.1315736 ], [ 133.0056763, 48.1356042 ], [ 132.9889024, 48.1389814 ], [ 132.9894229, 48.1455415 ], [ 132.956934600000011, 48.137262 ], [ 132.9277409, 48.1367203 ], [ 132.89833859999996, 48.1479907 ], [ 132.8810751, 48.1624182 ], [ 132.842921100000012, 48.1663554 ], [ 132.802377799999988, 48.1547541 ], [ 132.7655039, 48.1684623 ], [ 132.73337749999996, 48.1620761 ], [ 132.714160699999979, 48.1691948 ], [ 132.699012499999981, 48.187768 ], [ 132.6842308, 48.1875461 ], [ 132.6754561, 48.2026659 ], [ 132.6512994, 48.2069411 ], [ 132.638563799999957, 48.2168728 ], [ 132.604071200000021, 48.220703 ], [ 132.5799525, 48.2118309 ], [ 132.572994599999987, 48.2041467 ], [ 132.536649899999958, 48.2108499 ], [ 132.522596099999987, 48.2191654 ], [ 132.485514099999961, 48.2530283 ], [ 132.476014, 48.2933174 ], [ 132.465519899999975, 48.3027654 ], [ 132.4707047, 48.3232979 ], [ 132.4832518, 48.3311882 ], [ 132.3445491, 48.3437704 ], [ 132.349766499999987, 48.3445041 ], [ 132.345109899999983, 48.349598 ], [ 132.3580138, 48.3514571 ], [ 132.368942, 48.3694142 ], [ 132.387748199999976, 48.3793741 ], [ 132.411152499999986, 48.4296611 ], [ 132.392914399999967, 48.4497462 ], [ 132.363268799999986, 48.4618118 ], [ 132.3419946, 48.4526689 ], [ 132.327103099999988, 48.4668629 ], [ 132.316069700000014, 48.4935893 ], [ 132.3134298, 48.5488227 ], [ 132.3028711, 48.5657677 ], [ 132.338047499999959, 48.5825691 ], [ 132.335802599999965, 48.5870187 ], [ 132.355995, 48.5901173 ], [ 132.377768, 48.5857545 ], [ 132.405790599999989, 48.5909718 ], [ 132.416506, 48.5970009 ], [ 132.404906899999986, 48.6128197 ], [ 132.418995, 48.6181273 ], [ 132.472741599999978, 48.6102943 ], [ 132.482996, 48.5925045 ], [ 132.513669899999968, 48.587501 ], [ 132.527156100000013, 48.5913035 ], [ 132.533152899999976, 48.5849117 ], [ 132.55207, 48.5885176 ], [ 132.558687, 48.6029804 ], [ 132.5775362, 48.6065895 ], [ 132.591907600000013, 48.6172023 ], [ 132.59412949999998, 48.6307527 ], [ 132.603331, 48.6378925 ], [ 132.6200064, 48.637627 ], [ 132.6315787, 48.6438507 ], [ 132.6451223, 48.6650837 ], [ 132.69037320000001, 48.6788927 ], [ 132.672324, 48.7029914 ], [ 132.6820008, 48.7067976 ], [ 132.6724672, 48.7287559 ], [ 132.6686765, 48.7792494 ], [ 132.6516251, 48.7898973 ], [ 132.630316599999986, 48.8166118 ], [ 132.6171281, 48.8190468 ], [ 132.601742399999978, 48.8418002 ], [ 132.613525, 48.8461998 ], [ 132.6199162, 48.8595835 ], [ 132.634065099999987, 48.8619659 ], [ 132.6410501, 48.877447 ], [ 132.6556486, 48.8881367 ], [ 132.682014, 48.9001499 ], [ 132.689582800000039, 48.898302 ], [ 132.6977573, 48.9030701 ], [ 132.714262799999972, 48.8952564 ], [ 132.7658992, 48.9223859 ], [ 132.796285, 48.9270304 ], [ 132.968434499999972, 48.9217748 ], [ 132.985225, 48.9169319 ], [ 133.163816700000012, 48.9547048 ], [ 133.2235933, 48.9611168 ], [ 133.2218325, 48.9549499 ], [ 133.203641299999987, 48.9490948 ], [ 133.1996426, 48.9376076 ], [ 133.193026, 48.9384471 ], [ 133.1789144, 48.9277854 ], [ 133.182412399999976, 48.9220921 ], [ 133.173119799999967, 48.9131858 ], [ 133.1793524, 48.9129091 ], [ 133.170199200000013, 48.9078752 ], [ 133.169864, 48.8999186 ], [ 133.1804382, 48.8971735 ], [ 133.182670599999966, 48.8901876 ], [ 133.1712618, 48.8874092 ], [ 133.17583769999996, 48.8832143 ], [ 133.185751399999987, 48.8847831 ], [ 133.188966899999969, 48.8747115 ], [ 133.18094880000001, 48.8733422 ], [ 133.183744800000028, 48.8697293 ], [ 133.175714, 48.8676872 ], [ 133.1803051, 48.8644465 ], [ 133.170518, 48.859379 ], [ 133.181536699999981, 48.85515 ], [ 133.1682817, 48.8537637 ], [ 133.18236749999997, 48.8392955 ], [ 133.17190260000001, 48.8427584 ], [ 133.1767561, 48.8364751 ], [ 133.1648309, 48.8350591 ], [ 133.17039120000004, 48.8324389 ], [ 133.1640703, 48.8253947 ], [ 133.1748703, 48.8210397 ], [ 133.1667773, 48.814347 ], [ 133.1614504, 48.81612 ], [ 133.1608922, 48.8050566 ], [ 133.1523391, 48.8033964 ], [ 133.171886699999988, 48.7823582 ], [ 133.165725499999979, 48.7736962 ], [ 133.1478113, 48.7706416 ], [ 133.110722199999969, 48.7455432 ], [ 133.1156925, 48.7390047 ], [ 133.0930093, 48.7272837 ], [ 133.115862099999987, 48.6676943 ], [ 133.200014, 48.6215869 ], [ 133.2464302, 48.4886264 ], [ 133.331529, 48.3566559 ], [ 133.3496, 48.300328 ], [ 133.342583100000013, 48.265052 ], [ 133.2871773, 48.1777132 ], [ 133.3097617, 48.0980542 ], [ 133.26602, 48.092762 ], [ 133.239727, 48.101625 ], [ 133.181824, 48.108715 ], [ 133.097923, 48.1042834 ], [ 133.065261099999958, 48.1072192 ] ], [ [ 133.066558699999973, 48.7147941 ], [ 133.082608199999981, 48.7305791 ], [ 133.0503855, 48.7358823 ], [ 133.018929500000013, 48.7519008 ], [ 133.046605699999986, 48.770357 ], [ 132.935567699999979, 48.822134 ], [ 132.890028199999989, 48.8673168 ], [ 132.862432599999977, 48.8605044 ], [ 132.8644457, 48.8499707 ], [ 132.8419222, 48.8365827 ], [ 132.840704899999963, 48.8144432 ], [ 132.823786699999971, 48.806076 ], [ 132.8257621, 48.7817259 ], [ 132.798360300000013, 48.781288 ], [ 132.7991543, 48.7681327 ], [ 132.809414800000013, 48.7620643 ], [ 132.800733900000012, 48.7553451 ], [ 132.810597300000012, 48.7408602 ], [ 132.8033134, 48.7385647 ], [ 132.791117500000013, 48.7433629 ], [ 132.778213599999987, 48.7366313 ], [ 132.7863519, 48.729783 ], [ 132.821778399999971, 48.7280727 ], [ 132.857448, 48.737631 ], [ 132.881387100000012, 48.7314023 ], [ 132.89585660000003, 48.7196761 ], [ 132.90208530000001, 48.7047891 ], [ 132.914781599999969, 48.7096793 ], [ 132.9257091, 48.698229 ], [ 132.930977599999977, 48.7123676 ], [ 132.92664, 48.7177073 ], [ 132.9358389, 48.7165733 ], [ 132.939377, 48.7222472 ], [ 132.93555760000001, 48.7582979 ], [ 132.9466176, 48.7651158 ], [ 132.9538492, 48.754707 ], [ 132.971942399999961, 48.7555805 ], [ 132.9931499, 48.7493197 ], [ 133.008103099999971, 48.7407734 ], [ 133.006192, 48.7367402 ], [ 133.018484, 48.7361348 ], [ 133.0209951, 48.725311 ], [ 133.0374249, 48.7261699 ], [ 133.066558699999973, 48.7147941 ] ] ] } },
{ "type": "Feature", "properties": { "NAME": "Облученский район", "NAME_EN": "Obluchensky District", "NAME_RU": "Облученский район", "ADMIN_LVL": "6", "OSM_TYPE": "relation", "OSM_ID": 1701714, "ADMIN_L1D": null, "ADMIN_L1": null, "ADMIN_L2D": 60189, "ADMIN_L2": "Россия", "ADMIN_L3D": 1221185, "ADMIN_L3": "Дальневосточный федеральный округ", "ADMIN_L4D": 147167, "ADMIN_L4": "Еврейская автономная область", "ADMIN_L5D": null, "ADMIN_L5": null, "ADMIN_L6D": null, "ADMIN_L6": null, "ADMIN_L7D": null, "ADMIN_L7": null, "ADMIN_L8D": null, "ADMIN_L8": null, "ADMIN_L9D": null, "ADMIN_L9": null, "ADMIN_L10D": null, "ADMIN_L10": null, "oktmo": "99620000" }, "geometry": { "type": "Polygon", "coordinates": [ [ [ 130.5227923, 48.6120583 ], [ 130.525646200000011, 48.6336177 ], [ 130.563299, 48.687722 ], [ 130.6067545, 48.7750448 ], [ 130.640816, 48.817453 ], [ 130.6812262, 48.8523837 ], [ 130.6820529, 48.8653444 ], [ 130.6693459, 48.8771033 ], [ 130.653932, 48.881827 ], [ 130.6299698, 48.8814543 ], [ 130.6275388, 48.8965652 ], [ 130.6531369, 48.9112288 ], [ 130.651543699999962, 48.9165456 ], [ 130.679272, 48.927412 ], [ 130.6980874, 48.9256326 ], [ 130.7120701, 48.9405108 ], [ 130.7487894, 48.9474874 ], [ 130.741509799999989, 48.9608522 ], [ 130.781291399999958, 48.97839 ], [ 130.7799839, 48.9694829 ], [ 130.7918234, 48.9644448 ], [ 130.8053016, 48.968222 ], [ 130.8318548, 48.9876275 ], [ 130.8444039, 48.9862907 ], [ 130.8631675, 48.9940549 ], [ 130.870956799999988, 48.9890667 ], [ 130.897532400000017, 48.9924294 ], [ 130.9319463, 48.9803827 ], [ 130.9424735, 48.9826186 ], [ 130.9836665, 48.9736508 ], [ 130.9877467, 48.9761562 ], [ 131.0003501, 48.9687192 ], [ 131.02494379999996, 48.9680174 ], [ 131.045471099999986, 48.9754054 ], [ 131.048942600000032, 48.9899574 ], [ 131.039351900000014, 48.998906 ], [ 131.023171399999967, 49.0032975 ], [ 131.0164452, 49.0365639 ], [ 131.028715299999988, 49.0410554 ], [ 131.022100399999971, 49.04682170000001 ], [ 131.029685099999966, 49.0535004 ], [ 131.033138400000013, 49.0729426 ], [ 131.047684, 49.0788355 ], [ 131.0475237, 49.1048073 ], [ 131.060758099999987, 49.1155996 ], [ 131.0650611, 49.1440099 ], [ 131.075884699999961, 49.1525397 ], [ 131.0691019, 49.169405 ], [ 131.0795065, 49.1880469 ], [ 131.10671450000001, 49.208538 ], [ 131.1163999, 49.2255962 ], [ 131.110786099999984, 49.233218099999988 ], [ 131.1551785, 49.2436982 ], [ 131.1804859, 49.2280042 ], [ 131.205712799999986, 49.2298738 ], [ 131.2399423, 49.2507754 ], [ 131.268076600000029, 49.2500807 ], [ 131.274770499999988, 49.2561199 ], [ 131.292132, 49.2555745 ], [ 131.292185499999988, 49.2443344 ], [ 131.3012175, 49.2356346 ], [ 131.3515908, 49.2630085 ], [ 131.379588499999983, 49.2542885 ], [ 131.4213417, 49.2552788 ], [ 131.4579333, 49.2442822 ], [ 131.468380099999962, 49.2296669 ], [ 131.4668613, 49.217402 ], [ 131.47323769999997, 49.2111336 ], [ 131.48736980000001, 49.2097858 ], [ 131.490997899999968, 49.2237223 ], [ 131.5066157, 49.2323639 ], [ 131.5048716, 49.2429645 ], [ 131.5143056, 49.2490403 ], [ 131.531655800000038, 49.2454376 ], [ 131.55716529999998, 49.248063 ], [ 131.573191400000013, 49.2568832 ], [ 131.5706032, 49.2665928 ], [ 131.5825845, 49.2695654 ], [ 131.601379, 49.2655386 ], [ 131.6171273, 49.2761613 ], [ 131.618082, 49.2885841 ], [ 131.6369401, 49.2920268 ], [ 131.664759800000013, 49.3124156 ], [ 131.702869499999963, 49.3037353 ], [ 131.711609799999962, 49.3085339 ], [ 131.721714100000014, 49.3059324 ], [ 131.736063800000011, 49.3163433 ], [ 131.7452519, 49.3081648 ], [ 131.7755775, 49.3153724 ], [ 131.801548900000029, 49.3388299 ], [ 131.818781599999966, 49.3337983 ], [ 131.81954, 49.3280017 ], [ 131.8340365, 49.3230745 ], [ 131.8618257, 49.2957778 ], [ 131.8730909, 49.2922185 ], [ 131.8844292, 49.2732286 ], [ 131.8916166, 49.2716192 ], [ 131.904088, 49.2783976 ], [ 131.9171076, 49.271806 ], [ 131.9403993, 49.2785424 ], [ 131.956978, 49.2740322 ], [ 131.9664654, 49.2624144 ], [ 131.988628399999982, 49.255894 ], [ 132.0043068, 49.2688416 ], [ 132.003150799999986, 49.2848185 ], [ 131.9817802, 49.2873852 ], [ 131.974214499999988, 49.3082832 ], [ 131.9978884, 49.3260761 ], [ 132.022770900000012, 49.3292195 ], [ 132.023558400000013, 49.3379201 ], [ 132.005562200000014, 49.3490045 ], [ 131.993181099999987, 49.3768572 ], [ 132.008954699999975, 49.3811649 ], [ 132.022673799999978, 49.3742488 ], [ 132.0301551, 49.3780026 ], [ 132.053279800000013, 49.3774498 ], [ 132.0599784, 49.3840189 ], [ 132.094925499999988, 49.3848104 ], [ 132.0865296, 49.397110499999989 ], [ 132.0632483, 49.4109365 ], [ 132.0621406, 49.4264586 ], [ 132.0747472, 49.4409513 ], [ 132.0644591, 49.4596481 ], [ 132.082029399999982, 49.4706465 ], [ 132.083638400000012, 49.478736 ], [ 132.111370599999987, 49.4941038 ], [ 132.1186027, 49.4894817 ], [ 132.145755199999968, 49.4931433 ], [ 132.156951699999979, 49.4857995 ], [ 132.1703796, 49.4893203 ], [ 132.191083699999979, 49.4734167 ], [ 132.224739099999965, 49.4733339 ], [ 132.2399906, 49.4892705 ], [ 132.2453845, 49.4880427 ], [ 132.2737985, 49.4636257 ], [ 132.270379299999973, 49.4432938 ], [ 132.277447499999965, 49.4347621 ], [ 132.2900977, 49.4331405 ], [ 132.304955, 49.4205182 ], [ 132.323825500000027, 49.4145545 ], [ 132.345241499999986, 49.4151468 ], [ 132.354664, 49.4098803 ], [ 132.384629199999978, 49.4139062 ], [ 132.4075943, 49.3690868 ], [ 132.399414900000011, 49.3588299 ], [ 132.4001341, 49.3469181 ], [ 132.376206500000023, 49.342948 ], [ 132.366525599999989, 49.3342527 ], [ 132.371253299999978, 49.3084947 ], [ 132.385011200000037, 49.2959931 ], [ 132.40042349999996, 49.3016336 ], [ 132.445920599999965, 49.2826937 ], [ 132.467212, 49.2835086 ], [ 132.4729418, 49.2727798 ], [ 132.4877639, 49.2649198 ], [ 132.5059483, 49.2677691 ], [ 132.5095694, 49.2771503 ], [ 132.529343, 49.2795625 ], [ 132.527527699999979, 49.2925002 ], [ 132.558178199999958, 49.3014889 ], [ 132.563694199999986, 49.3096179 ], [ 132.577099, 49.306559 ], [ 132.5957745, 49.31146840000001 ], [ 132.633181, 49.2864903 ], [ 132.650573499999979, 49.2884193 ], [ 132.658931099999961, 49.2825053 ], [ 132.674614600000012, 49.2921342 ], [ 132.6736029, 49.3015606 ], [ 132.680683, 49.3045087 ], [ 132.69652640000001, 49.3070561 ], [ 132.712926, 49.2998191 ], [ 132.716746, 49.3079747 ], [ 132.7066201, 49.32045810000001 ], [ 132.711748799999981, 49.3267376 ], [ 132.734350499999977, 49.3315719 ], [ 132.7520915, 49.3260643 ], [ 132.773412699999966, 49.3348222 ], [ 132.78481690000001, 49.3256623 ], [ 132.779394200000013, 49.3060845 ], [ 132.787080099999969, 49.2989301 ], [ 132.7803399, 49.2876051 ], [ 132.790706199999988, 49.2841171 ], [ 132.7932, 49.272708 ], [ 132.80685, 49.2676851 ], [ 132.8003275, 49.243636 ], [ 132.8108626, 49.2363992 ], [ 132.835408, 49.2434312 ], [ 132.87045040000001, 49.2400001 ], [ 132.8875366, 49.2526069 ], [ 132.908532099999974, 49.2555114 ], [ 132.918089299999963, 49.2323396 ], [ 132.936039799999975, 49.2270145 ], [ 132.956105400000013, 49.2226335 ], [ 132.9771786, 49.2301641 ], [ 132.9858688, 49.2284365 ], [ 132.993917, 49.2181507 ], [ 133.0142127, 49.2209722 ], [ 133.0552267, 49.2146386 ], [ 133.058270499999963, 49.1987051 ], [ 133.0792128, 49.1719784 ], [ 133.10362509999996, 49.1730343 ], [ 133.136104, 49.1619107 ], [ 133.1377649, 49.1569472 ], [ 133.158784, 49.1529407 ], [ 133.1646742, 49.1437807 ], [ 133.156094, 49.1386807 ], [ 133.156469, 49.12029960000001 ], [ 133.2320746, 49.08068080000001 ], [ 133.280308699999978, 49.0317305 ], [ 133.270249899999982, 49.0079979 ], [ 133.2746014, 48.9841265 ], [ 133.265929199999988, 48.9854275 ], [ 133.2476868, 48.974158 ], [ 133.2424643, 48.9759939 ], [ 133.2459192, 48.97061 ], [ 133.2289849, 48.9594592 ], [ 133.225542699999977, 48.962176 ], [ 133.163816700000012, 48.9547048 ], [ 132.985225, 48.9169319 ], [ 132.968434499999972, 48.9217748 ], [ 132.788305599999973, 48.9264324 ], [ 132.7658992, 48.9223859 ], [ 132.714262799999972, 48.8952564 ], [ 132.694894299999987, 48.9030684 ], [ 132.6556486, 48.8881367 ], [ 132.6410501, 48.877447 ], [ 132.634065099999987, 48.8619659 ], [ 132.6199162, 48.8595835 ], [ 132.613525, 48.8461998 ], [ 132.601742399999978, 48.8418002 ], [ 132.6171281, 48.8190468 ], [ 132.630316599999986, 48.8166118 ], [ 132.6516251, 48.7898973 ], [ 132.6686765, 48.7792494 ], [ 132.6724672, 48.7287559 ], [ 132.6820008, 48.7067976 ], [ 132.672324, 48.7029914 ], [ 132.69037320000001, 48.6788927 ], [ 132.6451223, 48.6650837 ], [ 132.6315787, 48.6438507 ], [ 132.6200064, 48.637627 ], [ 132.603331, 48.6378925 ], [ 132.59412949999998, 48.6307527 ], [ 132.591907600000013, 48.6172023 ], [ 132.5775362, 48.6065895 ], [ 132.558687, 48.6029804 ], [ 132.551867499999958, 48.5884638 ], [ 132.533152899999976, 48.5849117 ], [ 132.527156100000013, 48.5913035 ], [ 132.513669899999968, 48.587501 ], [ 132.482996, 48.5925045 ], [ 132.472741599999978, 48.6102943 ], [ 132.419927199999961, 48.6181519 ], [ 132.404906899999986, 48.6128197 ], [ 132.416506, 48.5970009 ], [ 132.405790599999989, 48.5909718 ], [ 132.377768, 48.5857545 ], [ 132.355995, 48.5901173 ], [ 132.335802599999965, 48.5870187 ], [ 132.338047499999959, 48.5825691 ], [ 132.302853199999959, 48.5646834 ], [ 132.315842599999968, 48.5375827 ], [ 132.316069700000014, 48.4935893 ], [ 132.327103099999988, 48.4668629 ], [ 132.3419946, 48.4526689 ], [ 132.309542599999958, 48.4364132 ], [ 132.299756800000011, 48.4430523 ], [ 132.283315199999976, 48.4422166 ], [ 132.232862499999982, 48.4330458 ], [ 132.220818499999979, 48.4221646 ], [ 132.199046799999962, 48.4301994 ], [ 132.1792398, 48.4696792 ], [ 132.158871299999959, 48.4709507 ], [ 132.094932, 48.451782799999989 ], [ 132.0691597, 48.479606 ], [ 132.0052231, 48.507476 ], [ 131.954243899999966, 48.4879098 ], [ 131.948694600000039, 48.5033518 ], [ 131.942315799999989, 48.500171 ], [ 131.929041, 48.5094878 ], [ 131.9226246, 48.5039618 ], [ 131.916115899999966, 48.5058149 ], [ 131.923277899999988, 48.5125951 ], [ 131.9062939, 48.5152479 ], [ 131.906424499999986, 48.5195603 ], [ 131.8870183, 48.512348 ], [ 131.870287599999983, 48.5280398 ], [ 131.8648675, 48.5251532 ], [ 131.854450500000013, 48.534684 ], [ 131.845035699999983, 48.5342128 ], [ 131.830178199999978, 48.5505646 ], [ 131.8233691, 48.5522535 ], [ 131.8196228, 48.5475672 ], [ 131.81327, 48.554672 ], [ 131.7894408, 48.554684 ], [ 131.7749604, 48.564037 ], [ 131.767532499999987, 48.562975 ], [ 131.768872499999958, 48.5669119 ], [ 131.7390785, 48.5684445 ], [ 131.7270883, 48.5880416 ], [ 131.720959, 48.5847497 ], [ 131.7203525, 48.5886631 ], [ 131.70723670000001, 48.5909179 ], [ 131.70288690000001, 48.5981053 ], [ 131.6764775, 48.6073163 ], [ 131.658813699999968, 48.6221721 ], [ 131.625053, 48.6254633 ], [ 131.615393, 48.6339956 ], [ 131.5887444, 48.6383058 ], [ 131.584561299999962, 48.6446389 ], [ 131.5481782, 48.623389 ], [ 131.5226523, 48.6168408 ], [ 131.5215034, 48.6230592 ], [ 131.505422099999976, 48.6220769 ], [ 131.490543, 48.6289745 ], [ 131.4782191, 48.6209245 ], [ 131.4581449, 48.6247613 ], [ 131.443334099999987, 48.6114979 ], [ 131.425691799999981, 48.6181689 ], [ 131.4024986, 48.6126628 ], [ 131.3851257, 48.6217954 ], [ 131.35835, 48.612382 ], [ 131.315193599999958, 48.6087933 ], [ 131.321011199999958, 48.5960661 ], [ 131.30584970000001, 48.568847 ], [ 131.3113947, 48.5648293 ], [ 131.30485459999997, 48.5486965 ], [ 131.3102096, 48.5471376 ], [ 131.2988638, 48.5484617 ], [ 131.297170200000011, 48.5517283 ], [ 131.2758293, 48.5399202 ], [ 131.2652529, 48.5203729 ], [ 131.200996300000014, 48.4923731 ], [ 131.171778, 48.4612226 ], [ 131.1482488, 48.4675866 ], [ 131.139055599999978, 48.4654221 ], [ 131.1298947, 48.454353 ], [ 131.0896233, 48.4525969 ], [ 131.0891868, 48.4612226 ], [ 131.0818966, 48.4608526 ], [ 131.054876299999989, 48.4537988 ], [ 131.048166099999975, 48.44498260000001 ], [ 131.0426211, 48.4463189 ], [ 131.028198599999968, 48.4359495 ], [ 131.0086973, 48.4444572 ], [ 131.001709799999958, 48.4372402 ], [ 131.006634, 48.4270013 ], [ 130.991295199999968, 48.4164924 ], [ 130.983190299999961, 48.4164194 ], [ 130.977220399999965, 48.4304478 ], [ 130.9658038, 48.4369593 ], [ 130.9539093, 48.4319942 ], [ 130.9554477, 48.4214414 ], [ 130.941610699999984, 48.4191382 ], [ 130.9419957, 48.4105672 ], [ 130.92899479999997, 48.4054694 ], [ 130.9045974, 48.4219451 ], [ 130.899400500000013, 48.4450614 ], [ 130.8805063, 48.4534469 ], [ 130.865222499999987, 48.4543681 ], [ 130.857151499999986, 48.4690291 ], [ 130.842705, 48.4785707 ], [ 130.837416299999973, 48.468234 ], [ 130.8059108, 48.4626751 ], [ 130.7980652, 48.457019699999989 ], [ 130.781169399999982, 48.4577469 ], [ 130.7416876, 48.4457936 ], [ 130.7338034, 48.4488708 ], [ 130.7598821, 48.4760301 ], [ 130.762598, 48.488236 ], [ 130.758197, 48.497286 ], [ 130.73473, 48.512397 ], [ 130.7171344, 48.5124254 ], [ 130.660133, 48.490332 ], [ 130.625571, 48.488468 ], [ 130.608368, 48.501915 ], [ 130.607408099999986, 48.5659439 ], [ 130.599435, 48.585015 ], [ 130.585212699999971, 48.5953434 ], [ 130.532985, 48.604695 ], [ 130.5227923, 48.6120583 ] ] ] } },
{ "type": "Feature", "properties": { "NAME": "городской округ Биробиджан", "NAME_EN": "Birobidzhan", "NAME_RU": null, "ADMIN_LVL": "6", "OSM_TYPE": "relation", "OSM_ID": 1701717, "ADMIN_L1D": null, "ADMIN_L1": null, "ADMIN_L2D": 60189, "ADMIN_L2": "Россия", "ADMIN_L3D": 1221185, "ADMIN_L3": "Дальневосточный федеральный округ", "ADMIN_L4D": 147167, "ADMIN_L4": "Еврейская автономная область", "ADMIN_L5D": null, "ADMIN_L5": null, "ADMIN_L6D": null, "ADMIN_L6": null, "ADMIN_L7D": null, "ADMIN_L7": null, "ADMIN_L8D": null, "ADMIN_L8": null, "ADMIN_L9D": null, "ADMIN_L9": null, "ADMIN_L10D": null, "ADMIN_L10": null, "oktmo": "99701000" }, "geometry": { "type": "Polygon", "coordinates": [ [ [ 132.8419222, 48.8365827 ], [ 132.8644457, 48.8499707 ], [ 132.862432599999977, 48.8605044 ], [ 132.890028199999989, 48.8673168 ], [ 132.935567699999979, 48.822134 ], [ 133.046605699999986, 48.770357 ], [ 133.018929500000013, 48.7519008 ], [ 133.0503855, 48.7358823 ], [ 133.082608199999981, 48.7305791 ], [ 133.0740463, 48.7187678 ], [ 133.0612783, 48.714479 ], [ 133.0607392, 48.7186457 ], [ 133.0374249, 48.7261699 ], [ 133.0209951, 48.725311 ], [ 133.018484, 48.7361348 ], [ 133.006192, 48.7367402 ], [ 133.008103099999971, 48.7407734 ], [ 132.9931499, 48.7493197 ], [ 132.971942399999961, 48.7555805 ], [ 132.9538492, 48.754707 ], [ 132.9466176, 48.7651158 ], [ 132.93555760000001, 48.7582979 ], [ 132.939377, 48.7222472 ], [ 132.9358389, 48.7165733 ], [ 132.92664, 48.7177073 ], [ 132.930977599999977, 48.7123676 ], [ 132.9257091, 48.698229 ], [ 132.914781599999969, 48.7096793 ], [ 132.90208530000001, 48.7047891 ], [ 132.89585660000003, 48.7196761 ], [ 132.881387100000012, 48.7314023 ], [ 132.857448, 48.737631 ], [ 132.821778399999971, 48.7280727 ], [ 132.7863519, 48.729783 ], [ 132.778213599999987, 48.7366313 ], [ 132.791117500000013, 48.7433629 ], [ 132.8033134, 48.7385647 ], [ 132.810597300000012, 48.7408602 ], [ 132.800733900000012, 48.7553451 ], [ 132.809414800000013, 48.7620643 ], [ 132.7991543, 48.7681327 ], [ 132.798360300000013, 48.781288 ], [ 132.8257621, 48.7817259 ], [ 132.823786699999971, 48.806076 ], [ 132.840704899999963, 48.8144432 ], [ 132.8419222, 48.8365827 ] ] ] } },
{ "type": "Feature", "properties": { "NAME": "Октябрьский район", "NAME_EN": "Oktyabrsky District", "NAME_RU": "Октябрьский район", "ADMIN_LVL": "6", "OSM_TYPE": "relation", "OSM_ID": 1701715, "ADMIN_L1D": null, "ADMIN_L1": null, "ADMIN_L2D": 60189, "ADMIN_L2": "Россия", "ADMIN_L3D": 1221185, "ADMIN_L3": "Дальневосточный федеральный округ", "ADMIN_L4D": 147167, "ADMIN_L4": "Еврейская автономная область", "ADMIN_L5D": null, "ADMIN_L5": null, "ADMIN_L6D": null, "ADMIN_L6": null, "ADMIN_L7D": null, "ADMIN_L7": null, "ADMIN_L8D": null, "ADMIN_L8": null, "ADMIN_L9D": null, "ADMIN_L9": null, "ADMIN_L10D": null, "ADMIN_L10": null, "oktmo": "99625000" }, "geometry": { "type": "Polygon", "coordinates": [ [ [ 130.676022, 48.081376 ], [ 130.656152, 48.095251 ], [ 130.653706, 48.107718 ], [ 130.667267, 48.131726 ], [ 130.723847, 48.171703 ], [ 130.746774499999987, 48.1812413 ], [ 130.752248, 48.190111 ], [ 130.749618, 48.214304 ], [ 130.7648702, 48.247438099999989 ], [ 130.777493, 48.255327 ], [ 130.796952399999981, 48.2584827 ], [ 130.835647, 48.301678 ], [ 130.819682399999976, 48.3197169 ], [ 130.819854099999986, 48.3351249 ], [ 130.8095544, 48.343911 ], [ 130.766319918232341, 48.358488224115959 ], [ 130.748531, 48.405803 ], [ 130.732060099999984, 48.4302581 ], [ 130.7338034, 48.4488708 ], [ 130.7416876, 48.4457936 ], [ 130.781169399999982, 48.4577469 ], [ 130.7980652, 48.457019699999989 ], [ 130.8059108, 48.4626751 ], [ 130.837416299999973, 48.468234 ], [ 130.842705, 48.4785707 ], [ 130.857151499999986, 48.4690291 ], [ 130.865222499999987, 48.4543681 ], [ 130.8805063, 48.4534469 ], [ 130.899400500000013, 48.4450614 ], [ 130.906614, 48.419343 ], [ 130.918842899999959, 48.4152613 ], [ 130.925227299999989, 48.4063289 ], [ 130.93551690000001, 48.40510110000001 ], [ 130.9412719, 48.418915 ], [ 130.9554477, 48.4214414 ], [ 130.9539093, 48.4319942 ], [ 130.9658038, 48.4369593 ], [ 130.977220399999965, 48.4304478 ], [ 130.983190299999961, 48.4164194 ], [ 130.991295199999968, 48.4164924 ], [ 131.006634, 48.4270013 ], [ 131.001709799999958, 48.4372402 ], [ 131.0086973, 48.4444572 ], [ 131.028198599999968, 48.4359495 ], [ 131.0426211, 48.4463189 ], [ 131.048166099999975, 48.44498260000001 ], [ 131.054876299999989, 48.4537988 ], [ 131.0818966, 48.4608526 ], [ 131.0891868, 48.4612226 ], [ 131.0896233, 48.4525969 ], [ 131.1298947, 48.454353 ], [ 131.139055599999978, 48.4654221 ], [ 131.1482488, 48.4675866 ], [ 131.171778, 48.4612226 ], [ 131.200996300000014, 48.4923731 ], [ 131.2652529, 48.5203729 ], [ 131.2758293, 48.5399202 ], [ 131.297170200000011, 48.5517283 ], [ 131.2988638, 48.5484617 ], [ 131.3102096, 48.5471376 ], [ 131.30485459999997, 48.5486965 ], [ 131.3113947, 48.5648293 ], [ 131.30584970000001, 48.568847 ], [ 131.321011199999958, 48.5960661 ], [ 131.315193599999958, 48.6087933 ], [ 131.35835, 48.612382 ], [ 131.3851257, 48.6217954 ], [ 131.4024986, 48.6126628 ], [ 131.425691799999981, 48.6181689 ], [ 131.443334099999987, 48.6114979 ], [ 131.4581449, 48.6247613 ], [ 131.4782191, 48.6209245 ], [ 131.490543, 48.6289745 ], [ 131.505422099999976, 48.6220769 ], [ 131.5215034, 48.6230592 ], [ 131.5226523, 48.6168408 ], [ 131.5481782, 48.623389 ], [ 131.584561299999962, 48.6446389 ], [ 131.5887444, 48.6383058 ], [ 131.615393, 48.6339956 ], [ 131.625053, 48.6254633 ], [ 131.6582659, 48.622345 ], [ 131.6764775, 48.6073163 ], [ 131.70288690000001, 48.5981053 ], [ 131.70723670000001, 48.5909179 ], [ 131.7203525, 48.5886631 ], [ 131.720959, 48.5847497 ], [ 131.7270883, 48.5880416 ], [ 131.7390785, 48.5684445 ], [ 131.768872499999958, 48.5669119 ], [ 131.773745599999984, 48.5495624 ], [ 131.704568099999989, 48.4264166 ], [ 131.670408899999984, 48.3482893 ], [ 131.6822364, 48.3443555 ], [ 131.6964352, 48.2519673 ], [ 131.69545020000001, 48.1826051 ], [ 131.701773799999984, 48.1772969 ], [ 131.6933473, 48.1625057 ], [ 131.7032758, 48.1472064 ], [ 131.69825309999996, 48.14458 ], [ 131.701672699999961, 48.1335789 ], [ 131.7259871, 48.1069006 ], [ 131.736758699999967, 48.10984 ], [ 131.7444066, 48.1022136 ], [ 131.752289499999961, 48.1032808 ], [ 131.75019709999998, 48.0961489 ], [ 131.764074099999959, 48.0817077 ], [ 131.74942489999998, 48.0627762 ], [ 131.758344099999988, 48.0521451 ], [ 131.739970199999988, 48.0465362 ], [ 131.737694800000014, 48.0373544 ], [ 131.7211265, 48.035927 ], [ 131.713882500000011, 48.0218149 ], [ 131.706777, 48.0224101 ], [ 131.697590600000012, 48.0148042 ], [ 131.7095565, 47.9959744 ], [ 131.7035883, 47.9879759 ], [ 131.707204, 47.9768601 ], [ 131.697744699999959, 47.9721085 ], [ 131.6945696, 47.9589717 ], [ 131.706780900000012, 47.9569003 ], [ 131.7356346, 47.8356571 ], [ 131.75765770000001, 47.7990436 ], [ 131.788434199999983, 47.771308 ], [ 131.8556835, 47.7621182 ], [ 131.8593017, 47.7475691 ], [ 131.8524448, 47.7405562 ], [ 131.870231899999965, 47.7286615 ], [ 131.8696185, 47.711218100000011 ], [ 131.904170099999988, 47.7075265 ], [ 131.909864591117241, 47.688885047655035 ], [ 131.900303, 47.69 ], [ 131.866933, 47.673412 ], [ 131.812213, 47.667169 ], [ 131.76482, 47.682039 ], [ 131.736017, 47.703348 ], [ 131.7101398, 47.70847220000001 ], [ 131.67665089999997, 47.701445 ], [ 131.645113212733577, 47.668270257059099 ], [ 131.621976399999966, 47.6568854 ], [ 131.594432500000011, 47.6565182 ], [ 131.566598, 47.665221 ], [ 131.552229, 47.682538 ], [ 131.554115, 47.71401 ], [ 131.547516, 47.72664 ], [ 131.521356499999968, 47.7365191 ], [ 131.4248489, 47.7433794 ], [ 131.36602, 47.726682 ], [ 131.254649, 47.734781 ], [ 131.207315, 47.720318 ], [ 131.1751012, 47.6953355 ], [ 131.089526, 47.683168 ], [ 131.026469, 47.687943 ], [ 130.993733, 47.696167 ], [ 130.967455, 47.708645 ], [ 130.957495, 47.720318 ], [ 130.949798, 47.825461 ], [ 130.880451, 47.91782 ], [ 130.863971, 47.936225 ], [ 130.740977, 48.005559 ], [ 130.723829, 48.032068 ], [ 130.690656, 48.040189 ], [ 130.681707874206921, 48.047189341941639 ], [ 130.676022, 48.081376 ] ] ] } },
{ "type": "Feature", "properties": { "NAME": "Смидовичский район", "NAME_EN": "Smidovichsky District", "NAME_RU": "Смидовичский район", "ADMIN_LVL": "6", "OSM_TYPE": "relation", "OSM_ID": 1701716, "ADMIN_L1D": null, "ADMIN_L1": null, "ADMIN_L2D": 60189, "ADMIN_L2": "Россия", "ADMIN_L3D": 1221185, "ADMIN_L3": "Дальневосточный федеральный округ", "ADMIN_L4D": 147167, "ADMIN_L4": "Еврейская автономная область", "ADMIN_L5D": null, "ADMIN_L5": null, "ADMIN_L6D": null, "ADMIN_L6": null, "ADMIN_L7D": null, "ADMIN_L7": null, "ADMIN_L8D": null, "ADMIN_L8": null, "ADMIN_L9D": null, "ADMIN_L9": null, "ADMIN_L10D": null, "ADMIN_L10": null, "oktmo": "99630000" }, "geometry": { "type": "Polygon", "coordinates": [ [ [ 133.3097617, 48.0980542 ], [ 133.2871773, 48.1777132 ], [ 133.342583100000013, 48.265052 ], [ 133.3494002, 48.3094105 ], [ 133.331529, 48.3566559 ], [ 133.2464302, 48.4886264 ], [ 133.200014, 48.6215869 ], [ 133.115862099999987, 48.6676943 ], [ 133.0930093, 48.7272837 ], [ 133.1156925, 48.7390047 ], [ 133.110722199999969, 48.7455432 ], [ 133.1478113, 48.7706416 ], [ 133.165725499999979, 48.7736962 ], [ 133.171886699999988, 48.7823582 ], [ 133.1523391, 48.8033964 ], [ 133.1608922, 48.8050566 ], [ 133.1614504, 48.81612 ], [ 133.1667773, 48.814347 ], [ 133.1748703, 48.8210397 ], [ 133.1640703, 48.8253947 ], [ 133.17039120000004, 48.8324389 ], [ 133.1648309, 48.8350591 ], [ 133.1767561, 48.8364751 ], [ 133.17190260000001, 48.8427584 ], [ 133.18236749999997, 48.8392955 ], [ 133.1682817, 48.8537637 ], [ 133.181536699999981, 48.85515 ], [ 133.170518, 48.859379 ], [ 133.1803051, 48.8644465 ], [ 133.175714, 48.8676872 ], [ 133.183744800000028, 48.8697293 ], [ 133.18094880000001, 48.8733422 ], [ 133.188966899999969, 48.8747115 ], [ 133.185751399999987, 48.8847831 ], [ 133.17583769999996, 48.8832143 ], [ 133.1712618, 48.8874092 ], [ 133.182670599999966, 48.8901876 ], [ 133.1804382, 48.8971735 ], [ 133.169864, 48.8999186 ], [ 133.170199200000013, 48.9078752 ], [ 133.1793524, 48.9129091 ], [ 133.173119799999967, 48.9131858 ], [ 133.182412399999976, 48.9220921 ], [ 133.1771144, 48.9236915 ], [ 133.1789144, 48.9277854 ], [ 133.193026, 48.9384471 ], [ 133.1996426, 48.9376076 ], [ 133.203641299999987, 48.9490948 ], [ 133.2218325, 48.9549499 ], [ 133.2225603, 48.9608776 ], [ 133.285286499999984, 48.8744439 ], [ 133.2813506, 48.8484584 ], [ 133.463447, 48.8290972 ], [ 133.4823926, 48.8201457 ], [ 133.5062304, 48.7835042 ], [ 133.528843799999976, 48.7843478 ], [ 133.53207169999996, 48.7786294 ], [ 133.520610799999986, 48.7719058 ], [ 133.5221625, 48.7658577 ], [ 133.5387835, 48.7667368 ], [ 133.556654299999963, 48.7591029 ], [ 133.558711499999987, 48.7512529 ], [ 133.5511922, 48.7475428 ], [ 133.565437699999961, 48.7429207 ], [ 133.577717699999965, 48.7455003 ], [ 133.5778118, 48.7358478 ], [ 133.589276599999977, 48.7295026 ], [ 133.6039161, 48.7366363 ], [ 133.621995199999986, 48.7339318 ], [ 133.625282, 48.7436463 ], [ 133.643011199999989, 48.739567 ], [ 133.6589524, 48.746097 ], [ 133.6800126, 48.7400461 ], [ 133.6971648, 48.7466699 ], [ 133.7029566, 48.7357946 ], [ 133.683841099999967, 48.7233138 ], [ 133.6918061, 48.7172986 ], [ 133.7019541, 48.7186654 ], [ 133.7163459, 48.7301989 ], [ 133.7082601, 48.753292 ], [ 133.7118281, 48.7602218 ], [ 133.726693499999982, 48.7575334 ], [ 133.733717399999989, 48.7383422 ], [ 133.7464565, 48.7322255 ], [ 133.755085900000012, 48.7348873 ], [ 133.762801200000013, 48.7492147 ], [ 133.767900700000041, 48.7445994 ], [ 133.763488, 48.73750840000001 ], [ 133.7837197, 48.7378559 ], [ 133.782967500000012, 48.7260114 ], [ 133.7932869, 48.7275608 ], [ 133.786735599999986, 48.7208073 ], [ 133.7964125, 48.7179793 ], [ 133.789140800000013, 48.7115033 ], [ 133.816716400000018, 48.719159 ], [ 133.8045869, 48.7080382 ], [ 133.809581900000012, 48.7000605 ], [ 133.820529599999958, 48.6980679 ], [ 133.811196099999989, 48.6825254 ], [ 133.82591690000001, 48.6903204 ], [ 133.83423830000001, 48.6796781 ], [ 133.8564288, 48.680425 ], [ 133.8535767, 48.665552 ], [ 133.8718433, 48.6613151 ], [ 133.86608240000001, 48.6550274 ], [ 133.875533599999983, 48.658536 ], [ 133.871332700000011, 48.6699469 ], [ 133.9026911, 48.6612897 ], [ 133.9028826, 48.6501971 ], [ 133.913846499999977, 48.6492834 ], [ 133.913222600000012, 48.6428771 ], [ 133.930964699999976, 48.6456304 ], [ 133.922382700000014, 48.6395655 ], [ 133.9253488, 48.6355291 ], [ 133.943471100000011, 48.6551383 ], [ 133.9621718, 48.6463157 ], [ 133.9567562, 48.6580794 ], [ 133.96122349999996, 48.6624886 ], [ 133.9707736, 48.6479727 ], [ 133.959348299999959, 48.6411428 ], [ 133.9624197, 48.6374473 ], [ 133.984748599999961, 48.6473178 ], [ 134.000889399999977, 48.6398864 ], [ 134.00428009999996, 48.6470418 ], [ 134.0232776, 48.649249 ], [ 134.0312508, 48.6427084 ], [ 134.04738370000004, 48.6477161 ], [ 134.036394199999989, 48.6384346 ], [ 134.0465141, 48.6354305 ], [ 134.064762300000012, 48.6418312 ], [ 134.0687206, 48.6499321 ], [ 134.095879599999989, 48.6337026 ], [ 134.114455399999969, 48.6325516 ], [ 134.1092315, 48.6506975 ], [ 134.1369719, 48.6442807 ], [ 134.128004299999986, 48.6559338 ], [ 134.1543517, 48.6622563 ], [ 134.171668499999981, 48.656715 ], [ 134.1967991, 48.6633802 ], [ 134.20465219999997, 48.6532605 ], [ 134.2089315, 48.6590203 ], [ 134.217266200000012, 48.6579276 ], [ 134.217214, 48.6626334 ], [ 134.227739699999972, 48.6601306 ], [ 134.2157384, 48.6744294 ], [ 134.233262399999973, 48.6769665 ], [ 134.240561899999989, 48.6831829 ], [ 134.258642900000012, 48.6755097 ], [ 134.257715400000023, 48.6666215 ], [ 134.26595169999996, 48.6663037 ], [ 134.273304799999977, 48.6764451 ], [ 134.2549496, 48.6918136 ], [ 134.261948899999965, 48.6994118 ], [ 134.252861, 48.7148908 ], [ 134.2611875, 48.7205231 ], [ 134.2829822, 48.723274 ], [ 134.289842100000016, 48.7405817 ], [ 134.30029829999998, 48.7398617 ], [ 134.306391699999978, 48.7232182 ], [ 134.32902409999997, 48.7272206 ], [ 134.3398597, 48.7233237 ], [ 134.347004899999973, 48.7304338 ], [ 134.3622833, 48.7276974 ], [ 134.3742713, 48.7379734 ], [ 134.4047988, 48.7463384 ], [ 134.4168443, 48.739689 ], [ 134.4113293, 48.7241058 ], [ 134.4167296, 48.7172756 ], [ 134.426929299999983, 48.7173895 ], [ 134.442502499999989, 48.7292556 ], [ 134.4575035, 48.721992299999989 ], [ 134.4502177, 48.708012 ], [ 134.461388199999988, 48.6996729 ], [ 134.461016699999988, 48.6808636 ], [ 134.499017899999984, 48.670361 ], [ 134.5023206, 48.6629079 ], [ 134.493686599999961, 48.6508896 ], [ 134.5012567, 48.6493275 ], [ 134.5116008, 48.6611219 ], [ 134.518526900000012, 48.6613376 ], [ 134.538148899999982, 48.6495212 ], [ 134.5480397, 48.6341989 ], [ 134.578629400000011, 48.63086 ], [ 134.579505399999988, 48.6214977 ], [ 134.5519544, 48.607142 ], [ 134.5588103, 48.5984564 ], [ 134.585144, 48.6090688 ], [ 134.61406310000001, 48.6127069 ], [ 134.650783699999977, 48.6093448 ], [ 134.6517213, 48.6219666 ], [ 134.6613744, 48.6257221 ], [ 134.676741099999987, 48.6197376 ], [ 134.687491599999959, 48.5949431 ], [ 134.72579540000001, 48.5725115 ], [ 134.768858099999989, 48.5740084 ], [ 134.781573, 48.5929205 ], [ 134.8029574, 48.5921404 ], [ 134.810842, 48.6031131 ], [ 134.827704899999986, 48.6029726 ], [ 134.8597627, 48.614618900000011 ], [ 134.8687246, 48.6360739 ], [ 134.90236010000001, 48.6286921 ], [ 134.9240015, 48.6171563 ], [ 134.950616599999989, 48.6265573 ], [ 134.9663232, 48.6044237 ], [ 134.976973799999968, 48.60261890000001 ], [ 134.979706499999963, 48.5635323 ], [ 134.995784599999979, 48.5326809 ], [ 134.9924244, 48.5270208 ], [ 134.966287099999988, 48.5136751 ], [ 134.9578072, 48.5124019 ], [ 134.955058900000012, 48.5195584 ], [ 134.9362023, 48.5139261 ], [ 134.939180599999986, 48.5061791 ], [ 134.9201622, 48.4924846 ], [ 134.8968984, 48.4432621 ], [ 134.851227399999971, 48.3966089 ], [ 134.8081268, 48.3793863 ], [ 134.774358899999982, 48.3748135 ], [ 134.766201727785017, 48.364045068691347 ], [ 134.727460799999989, 48.3845135 ], [ 134.712604199999987, 48.3987183 ], [ 134.688099, 48.408073 ], [ 134.620473, 48.413928 ], [ 134.580724, 48.40725 ], [ 134.5012575, 48.4252932 ], [ 134.470697, 48.421878 ], [ 134.434445, 48.398028 ], [ 134.397561899999971, 48.3863283 ], [ 134.336819, 48.378948 ], [ 134.2703076, 48.3790301 ], [ 134.22234, 48.385944 ], [ 134.188314, 48.383718 ], [ 134.139978899999988, 48.3382441 ], [ 134.123154, 48.33189 ], [ 134.0968493, 48.3332231 ], [ 134.055569, 48.345818 ], [ 134.034025, 48.345081 ], [ 134.014369799999969, 48.3312482 ], [ 134.007414, 48.308827 ], [ 133.994119, 48.30217 ], [ 133.972377, 48.299827 ], [ 133.949555, 48.304327 ], [ 133.877552, 48.283112 ], [ 133.833836, 48.275719 ], [ 133.797834616473835, 48.259968004118278 ], [ 133.746404, 48.256754 ], [ 133.716702, 48.191525 ], [ 133.703184, 48.184287 ], [ 133.677615800000012, 48.1821793 ], [ 133.6136491, 48.1998585 ], [ 133.593398299999961, 48.1982513 ], [ 133.5802428, 48.1885509 ], [ 133.565484700000042, 48.1373754 ], [ 133.556633799999986, 48.1302503 ], [ 133.464488, 48.10912 ], [ 133.391526, 48.123559 ], [ 133.348221, 48.115211 ], [ 133.3097617, 48.0980542 ] ] ] } },
{ "type": "Feature", "properties": { "NAME": "Ленинский район", "NAME_EN": "Leninsky District", "NAME_RU": "Ленинский район", "ADMIN_LVL": "6", "OSM_TYPE": "relation", "OSM_ID": 1701713, "ADMIN_L1D": null, "ADMIN_L1": null, "ADMIN_L2D": 60189, "ADMIN_L2": "Россия", "ADMIN_L3D": 1221185, "ADMIN_L3": "Дальневосточный федеральный округ", "ADMIN_L4D": 147167, "ADMIN_L4": "Еврейская автономная область", "ADMIN_L5D": null, "ADMIN_L5": null, "ADMIN_L6D": null, "ADMIN_L6": null, "ADMIN_L7D": null, "ADMIN_L7": null, "ADMIN_L8D": null, "ADMIN_L8": null, "ADMIN_L9D": null, "ADMIN_L9": null, "ADMIN_L10D": null, "ADMIN_L10": null, "oktmo": "99610000" }, "geometry": { "type": "Polygon", "coordinates": [ [ [ 131.9081703, 47.6942948 ], [ 131.901669199999986, 47.7088264 ], [ 131.8696185, 47.711218100000011 ], [ 131.870231899999965, 47.7286615 ], [ 131.8524448, 47.7405562 ], [ 131.8593017, 47.7475691 ], [ 131.8556835, 47.7621182 ], [ 131.788434199999983, 47.771308 ], [ 131.75765770000001, 47.7990436 ], [ 131.7356346, 47.8356571 ], [ 131.706780900000012, 47.9569003 ], [ 131.6945696, 47.9589717 ], [ 131.697744699999959, 47.9721085 ], [ 131.707204, 47.9768601 ], [ 131.7035883, 47.9879759 ], [ 131.7095565, 47.9959744 ], [ 131.697590600000012, 48.0148042 ], [ 131.706777, 48.0224101 ], [ 131.713882500000011, 48.0218149 ], [ 131.7211265, 48.035927 ], [ 131.737694800000014, 48.0373544 ], [ 131.739970199999988, 48.0465362 ], [ 131.758344099999988, 48.0521451 ], [ 131.74942489999998, 48.0627762 ], [ 131.764074099999959, 48.0817077 ], [ 131.75019709999998, 48.0961489 ], [ 131.752289499999961, 48.1032808 ], [ 131.7444066, 48.1022136 ], [ 131.736758699999967, 48.10984 ], [ 131.7259871, 48.1069006 ], [ 131.701672699999961, 48.1335789 ], [ 131.69825309999996, 48.14458 ], [ 131.7032758, 48.1472064 ], [ 131.6933473, 48.1625057 ], [ 131.701773799999984, 48.1772969 ], [ 131.69545020000001, 48.1826051 ], [ 131.6964352, 48.2519673 ], [ 131.6822364, 48.3443555 ], [ 131.670408899999984, 48.3482893 ], [ 131.704568099999989, 48.4264166 ], [ 131.773745599999984, 48.5495624 ], [ 131.767532499999987, 48.562975 ], [ 131.7749604, 48.564037 ], [ 131.7894408, 48.554684 ], [ 131.81327, 48.554672 ], [ 131.8196228, 48.5475672 ], [ 131.8233691, 48.5522535 ], [ 131.8324113, 48.5498011 ], [ 131.845035699999983, 48.5342128 ], [ 131.854450500000013, 48.534684 ], [ 131.8648675, 48.5251532 ], [ 131.870287599999983, 48.5280398 ], [ 131.887527199999965, 48.5121595 ], [ 131.906424499999986, 48.5195603 ], [ 131.9062939, 48.5152479 ], [ 131.923277899999988, 48.5125951 ], [ 131.916115899999966, 48.5058149 ], [ 131.9226246, 48.5039618 ], [ 131.929041, 48.5094878 ], [ 131.942315799999989, 48.500171 ], [ 131.948694600000039, 48.5033518 ], [ 131.954243899999966, 48.4879098 ], [ 132.004517199999981, 48.5074254 ], [ 132.021349799999967, 48.4976769 ], [ 132.028931, 48.4999559 ], [ 132.0339404, 48.4918798 ], [ 132.0691597, 48.479606 ], [ 132.0923641, 48.4520482 ], [ 132.139765399999959, 48.4620815 ], [ 132.160512899999986, 48.4712886 ], [ 132.1792398, 48.4696792 ], [ 132.199046799999962, 48.4301994 ], [ 132.220818499999979, 48.4221646 ], [ 132.232862499999982, 48.4330458 ], [ 132.283315199999976, 48.4422166 ], [ 132.299756800000011, 48.4430523 ], [ 132.309542599999958, 48.4364132 ], [ 132.363268799999986, 48.4618118 ], [ 132.392914399999967, 48.4497462 ], [ 132.408414599999986, 48.4362057 ], [ 132.4111092, 48.4250015 ], [ 132.4036147, 48.4199968 ], [ 132.387748199999976, 48.3793741 ], [ 132.368942, 48.3694142 ], [ 132.3580138, 48.3514571 ], [ 132.345109899999983, 48.349598 ], [ 132.349766499999987, 48.3445041 ], [ 132.3445491, 48.3437704 ], [ 132.4832518, 48.3311882 ], [ 132.4707047, 48.3232979 ], [ 132.4654578, 48.303079 ], [ 132.476014, 48.2933174 ], [ 132.482066299999985, 48.2584121 ], [ 132.536649899999958, 48.2108499 ], [ 132.574184800000012, 48.2041898 ], [ 132.5799525, 48.2118309 ], [ 132.604071200000021, 48.220703 ], [ 132.638563799999957, 48.2168728 ], [ 132.6512994, 48.2069411 ], [ 132.6754561, 48.2026659 ], [ 132.6842308, 48.1875461 ], [ 132.699012499999981, 48.187768 ], [ 132.714160699999979, 48.1691948 ], [ 132.73337749999996, 48.1620761 ], [ 132.7655039, 48.1684623 ], [ 132.802377799999988, 48.1547541 ], [ 132.8258865, 48.1644616 ], [ 132.8765737, 48.16348270000001 ], [ 132.89833859999996, 48.1479907 ], [ 132.9277409, 48.1367203 ], [ 132.956934600000011, 48.137262 ], [ 132.9894229, 48.1455415 ], [ 132.9889024, 48.1389814 ], [ 133.0056763, 48.1356042 ], [ 133.0065912, 48.1315736 ], [ 133.021516100000014, 48.1367983 ], [ 133.035165399999983, 48.1310812 ], [ 133.0373121, 48.124284 ], [ 133.0616066, 48.1335555 ], [ 133.065261099999958, 48.1072192 ], [ 133.049022699999966, 48.10251 ], [ 133.029975, 48.082127 ], [ 133.007818, 48.040472 ], [ 132.9138733, 48.0138834 ], [ 132.8630603, 47.9917265 ], [ 132.815792, 47.935005 ], [ 132.78052, 47.925051 ], [ 132.763502100000011, 47.930278199999989 ], [ 132.719188, 47.961889 ], [ 132.682851099999965, 47.9610024 ], [ 132.666225, 47.9558781 ], [ 132.652126899999985, 47.9355958 ], [ 132.682259998627416, 47.885373989701812 ], [ 132.680487699999986, 47.8720795 ], [ 132.598655, 47.810336 ], [ 132.5900877, 47.771635 ], [ 132.601904699999977, 47.7577501 ], [ 132.603676966978952, 47.742092291768131 ], [ 132.589792, 47.729685 ], [ 132.548728, 47.714323 ], [ 132.5232615, 47.7191972 ], [ 132.484826499999969, 47.7157941 ], [ 132.460604499999988, 47.7302073 ], [ 132.427974799999959, 47.7302073 ], [ 132.408906, 47.735865 ], [ 132.384422199999989, 47.7506571 ], [ 132.3436164, 47.7577981 ], [ 132.30918650000001, 47.756778 ], [ 132.2829178, 47.7419859 ], [ 132.277562, 47.720053 ], [ 132.2528236, 47.7080661 ], [ 132.206662, 47.714697 ], [ 132.1553998, 47.7029654 ], [ 132.098781699999989, 47.7029654 ], [ 132.075533, 47.698018 ], [ 132.045418, 47.699854 ], [ 132.015654, 47.714536 ], [ 131.999512, 47.711239 ], [ 131.9891958, 47.7007623 ], [ 131.982799, 47.669797 ], [ 131.942725, 47.6613865 ], [ 131.9266254, 47.6658603 ], [ 131.915981499999987, 47.6755685 ], [ 131.9081703, 47.6942948 ] ] ] } }
]
}
